Study 2 — Main (Initial-Session) Analyses
…
label_summary_table

## # A tibble: 21 × 5
##    Variable                            Label     Mean    SD     n
##    <chr>                               <fct>    <dbl> <dbl> <int>
##  1 Pre_GLAT_Objective_AI_Literacy      AI        0.7   0.17    59
##  2 Pre_GLAT_Objective_AI_Literacy      AI Human  0.71  0.17    58
##  3 Pre_GLAT_Objective_AI_Literacy      Human     0.69  0.19    58
##  4 Pre_AILS_CCS_Subjective_AI_Literacy AI        3.82  0.55    59
##  5 Pre_AILS_CCS_Subjective_AI_Literacy AI Human  3.85  0.33    58
##  6 Pre_AILS_CCS_Subjective_AI_Literacy Human     3.82  0.49    58
##  7 Pre_AI_Trust                        AI        3.21  0.74    59
##  8 Pre_AI_Trust                        AI Human  3.25  0.66    58
##  9 Pre_AI_Trust                        Human     3.34  0.76    58
## 10 Pre_AI_Usefulness                   AI        4.23  0.56    59
## # ℹ 11 more rows
…
